{
    "KPlugin": {
        "Authors": [
            {
                "Email": "philip.falkner@gmail.com, mgraesslin@kde.org",
                "Name": "Philip Falkner, Martin Gräßlin",
                "Name[bg]": "Philip Falkner, Martin Gräßlin",
                "Name[ca]": "Philip Falkner, Martin Gräßlin",
                "Name[es]": "Philip Falkner, Martin Gräßlin",
                "Name[eu]": "Philip Falkner, Martin Gräßlin",
                "Name[ka]": "Philip Falkner, Martin Gräßlin",
                "Name[nl]": "Philip Falkner, Martin Gräßlin",
                "Name[sl]": "Philip Falkner, Martin Gräßlin",
                "Name[tr]": "Philip Falkner, Martin Gräßlin",
                "Name[uk]": "Philip Falkner, Martin Gräßlin",
                "Name[x-test]": "xxPhilip Falkner, Martin Gräßlinxx"
            }
        ],
        "Category": "Window Open/Close Animation",
        "Description": "Make windows smoothly fade in and out when they are shown or hidden",
        "Description[bg]": "Постепенно избледняване при показване и скриване на прозорците",
        "Description[ca]": "Fa que les finestres s'encenguin o s'apaguin de manera gradual quan es mostren o s'oculten",
        "Description[es]": "Hacer que las ventanas se desvanezcan y reaparezcan suavemente al mostrarlas y al ocultarlas",
        "Description[eu]": "Leihoak emeki koloregabetu/koloretu haiek erakustean edo ezkutatzean",
        "Description[nl]": "Laat vensters vloeiend opkomen/vervagen als ze worden weergegeven of verborgen",
        "Description[sl]": "Modalna okna naj se gladko odtemnijo oz. zatemnijo, kadar se prikažejo ali skrijejo",
        "Description[tr]": "Pencereler gösterilirken veya gizlenirken pürüzsüzce geçiş yapmalarını sağlar",
        "Description[uk]": "Плавна поява або зникнення вікон",
        "Description[x-test]": "xxMake windows smoothly fade in and out when they are shown or hiddenxx",
        "EnabledByDefault": false,
        "Icon": "preferences-system-windows-effect-fade",
        "Id": "kwin4_effect_fade",
        "License": "GPL",
        "Name": "Fade",
        "Name[bg]": "Избледняване",
        "Name[ca]": "Esvaïment",
        "Name[es]": "Desvanecer",
        "Name[eu]": "Koloregabetu",
        "Name[ka]": "მინავლება",
        "Name[nl]": "Vervagen",
        "Name[pt]": "Desvanecer",
        "Name[sl]": "Preliv",
        "Name[tr]": "Soldur",
        "Name[uk]": "Згасання",
        "Name[x-test]": "xxFadexx",
        "ServiceTypes": [
            "KWin/Effect"
        ],
        "Version": "0.2.0"
    },
    "X-KDE-Ordering": "60",
    "X-KWin-Exclusive-Category": "toplevel-open-close-animation",
    "X-Plasma-API": "javascript",
    "X-Plasma-MainScript": "code/main.js"
}
